{
    "name": "Global Information",
    "numberOfRequests": {
        "total": 60,
        "ok": 60,
        "ko": 0
    },
    "minResponseTime": {
        "total": 206,
        "ok": 206,
        "ko": 0
    },
    "maxResponseTime": {
        "total": 973,
        "ok": 973,
        "ko": 0
    },
    "meanResponseTime": {
        "total": 290,
        "ok": 290,
        "ko": 0
    },
    "standardDeviation": {
        "total": 212,
        "ok": 212,
        "ko": 0
    },
    "percentiles1": {
        "total": 213,
        "ok": 213,
        "ko": 0
    },
    "percentiles2": {
        "total": 218,
        "ok": 218,
        "ko": 0
    },
    "percentiles3": {
        "total": 834,
        "ok": 834,
        "ko": 0
    },
    "percentiles4": {
        "total": 961,
        "ok": 961,
        "ko": 0
    },
    "group1": {
    "name": "t < 800 ms",
    "count": 53,
    "percentage": 88
},
    "group2": {
    "name": "800 ms < t < 1200 ms",
    "count": 7,
    "percentage": 12
},
    "group3": {
    "name": "t > 1200 ms",
    "count": 0,
    "percentage": 0
},
    "group4": {
    "name": "failed",
    "count": 0,
    "percentage": 0
},
    "meanNumberOfRequestsPerSecond": {
        "total": 0.8695652173913043,
        "ok": 0.8695652173913043,
        "ko": 0
    }
}